;Midlands CTA 1 FL195
Midlands CTA               N053.03.14.000 W002.49.35.000 N053.06.26.000 W002.43.49.000
Midlands CTA               N053.06.26.000 W002.43.49.000 N053.06.02.000 W002.22.46.000
Midlands CTA               N053.06.02.000 W002.22.46.000 N053.07.32.000 W002.00.56.000
Midlands CTA               N053.07.32.000 W002.00.56.000 N053.26.56.000 W001.50.00.000
Midlands CTA               N053.26.56.000 W001.50.00.000 N053.27.19.000 W001.46.17.000
Midlands CTA               N053.27.19.000 W001.46.17.000 N053.11.37.000 W001.36.31.000
Midlands CTA               N053.11.37.000 W001.36.31.000 N053.11.45.000 W001.35.58.000
Midlands CTA               N053.11.45.000 W001.35.58.000 N053.11.39.000 W001.22.06.000
Midlands CTA               N053.11.39.000 W001.22.06.000 N052.11.26.000 W000.22.20.000
Midlands CTA               N052.11.26.000 W000.22.20.000 N052.03.16.000 W000.34.41.000
Midlands CTA               N052.03.16.000 W000.34.41.000 N052.04.21.000 W000.37.12.000
Midlands CTA               N052.04.21.000 W000.37.12.000 N051.57.45.000 W001.11.26.000
Midlands CTA               N051.57.45.000 W001.11.26.000 N051.44.20.000 W001.00.41.000
Midlands CTA               N051.44.20.000 W001.00.41.000 N051.34.23.000 W001.11.38.000
Midlands CTA               N051.34.23.000 W001.11.38.000 N051.36.40.000 W001.30.11.000
Midlands CTA               N051.36.40.000 W001.30.11.000 N051.39.11.000 W001.26.29.000
Midlands CTA               N051.39.11.000 W001.26.29.000 N051.39.43.000 W001.26.46.000
Midlands CTA               N051.39.43.000 W001.26.46.000 N051.40.55.000 W001.34.58.000
Midlands CTA               N051.40.55.000 W001.34.58.000 N051.42.11.000 W001.35.37.000
Midlands CTA               N051.42.11.000 W001.35.37.000 N052.32.53.000 W002.30.11.000
Midlands CTA               N052.32.53.000 W002.30.11.000 N052.50.46.000 W002.45.29.000
Midlands CTA               N052.50.46.000 W002.45.29.000 N052.53.34.000 W002.45.39.000
Midlands CTA               N052.53.34.000 W002.45.39.000 N053.00.06.000 W002.45.04.000
Midlands CTA               N053.00.06.000 W002.45.04.000 N053.03.14.000 W002.49.35.000