;EGCN
4500':N053.35.19.915:W001.19.39.562
4000':N053.27.46.543:W001.15.47.318
FL60:N053.22.55.373:W001.17.28.069
FL60:N053.20.16.705:W001.14.19.240
2000':N053.28.29.887:W001.10.29.235
2000':N053.38.39.831:W001.05.13.746
4000':N053.36.08.284:W001.11.58.077
1500':N053.36.24.103:W001.02.24.088
1500':N053.22.06.983:W001.08.50.002
2000':N053.37.01.229:W000.50.52.124
2000':N053.18.33.583:W001.00.04.065