;Newcastle CTR
EGNT Newcastle CTR N055.05.25.001 W001.54.11.002 N055.09.55.001 W001.37.18.998
EGNT Newcastle CTR N055.09.55.001 W001.37.18.998 N055.09.42.123 W001.36.09.527
EGNT Newcastle CTR N055.09.42.123 W001.36.09.527 N055.09.24.774 W001.35.03.019
EGNT Newcastle CTR N055.09.24.774 W001.35.03.019 N055.09.04.168 W001.33.59.402
EGNT Newcastle CTR N055.09.04.168 W001.33.59.402 N055.08.40.464 W001.32.59.162
EGNT Newcastle CTR N055.08.40.464 W001.32.59.162 N055.08.13.842 W001.32.02.756
EGNT Newcastle CTR N055.08.13.842 W001.32.02.756 N055.07.44.504 W001.31.10.614
EGNT Newcastle CTR N055.07.44.504 W001.31.10.614 N055.07.12.673 W001.30.23.133
EGNT Newcastle CTR N055.07.12.673 W001.30.23.133 N055.06.38.592 W001.29.40.673
EGNT Newcastle CTR N055.06.38.592 W001.29.40.673 N055.06.02.521 W001.29.03.559
EGNT Newcastle CTR N055.06.02.521 W001.29.03.559 N055.05.24.733 W001.28.32.072
EGNT Newcastle CTR N055.05.24.733 W001.28.32.072 N055.04.45.516 W001.28.06.453
EGNT Newcastle CTR N055.04.45.516 W001.28.06.453 N055.04.05.169 W001.27.46.896
EGNT Newcastle CTR N055.04.05.169 W001.27.46.896 N055.03.23.998 W001.27.33.550
EGNT Newcastle CTR N055.03.23.998 W001.27.33.550 N055.02.42.318 W001.27.26.516
EGNT Newcastle CTR N055.02.42.318 W001.27.26.516 N055.02.00.445 W001.27.25.848
EGNT Newcastle CTR N055.02.00.445 W001.27.25.848 N055.01.18.698 W001.27.31.552
EGNT Newcastle CTR N055.01.18.698 W001.27.31.552 N055.00.37.395 W001.27.43.584
EGNT Newcastle CTR N055.00.37.395 W001.27.43.584 N054.59.56.850 W001.28.01.852
EGNT Newcastle CTR N054.59.56.850 W001.28.01.852 N054.59.19.000 W001.28.28.999
EGNT Newcastle CTR N054.59.19.000 W001.28.28.999 N054.55.00.001 W001.47.04.999
EGNT Newcastle CTR N054.55.00.001 W001.47.04.999 N054.55.17.812 W001.48.11.071
EGNT Newcastle CTR N054.55.17.812 W001.48.11.071 N054.55.39.788 W001.49.13.275
EGNT Newcastle CTR N054.55.39.788 W001.49.13.275 N054.56.04.786 W001.50.11.900
EGNT Newcastle CTR N054.56.04.786 W001.50.11.900 N054.56.32.618 W001.51.06.500
EGNT Newcastle CTR N054.56.32.618 W001.51.06.500 N054.57.03.070 W001.51.56.659
EGNT Newcastle CTR N054.57.03.070 W001.51.56.659 N054.57.35.912 W001.52.41.995
EGNT Newcastle CTR N054.57.35.912 W001.52.41.995 N054.58.10.892 W001.53.22.164
EGNT Newcastle CTR N054.58.10.892 W001.53.22.164 N054.58.47.746 W001.53.56.860
EGNT Newcastle CTR N054.58.47.746 W001.53.56.860 N054.59.26.192 W001.54.25.818
EGNT Newcastle CTR N054.59.26.192 W001.54.25.818 N055.00.05.939 W001.54.48.818
EGNT Newcastle CTR N055.00.05.939 W001.54.48.818 N055.00.46.683 W001.55.05.686
EGNT Newcastle CTR N055.00.46.683 W001.55.05.686 N055.01.28.114 W001.55.16.292
EGNT Newcastle CTR N055.01.28.114 W001.55.16.292 N055.02.09.917 W001.55.20.557
EGNT Newcastle CTR N055.02.09.917 W001.55.20.557 N055.02.51.774 W001.55.18.448
EGNT Newcastle CTR N055.02.51.774 W001.55.18.448 N055.03.33.367 W001.55.09.980
EGNT Newcastle CTR N055.03.33.367 W001.55.09.980 N055.04.14.378 W001.54.55.218
EGNT Newcastle CTR N055.04.14.378 W001.54.55.218 N055.04.54.496 W001.54.34.275
EGNT Newcastle CTR N055.04.54.496 W001.54.34.275 N055.05.25.001 W001.54.11.002
;Newcastle CTA-1
EGNT Newcastle CTR N055.03.45.000 W002.00.20.002 N055.05.25.001 W001.54.11.002
EGNT Newcastle CTR N054.55.00.001 W001.47.04.999 N054.55.17.812 W001.48.11.071
EGNT Newcastle CTR N054.55.17.812 W001.48.11.071 N054.55.39.788 W001.49.13.275
EGNT Newcastle CTR N054.55.39.788 W001.49.13.275 N054.56.04.786 W001.50.11.900
EGNT Newcastle CTR N054.56.04.786 W001.50.11.900 N054.56.32.618 W001.51.06.500
EGNT Newcastle CTR N054.56.32.618 W001.51.06.500 N054.57.03.070 W001.51.56.659
EGNT Newcastle CTR N054.57.03.070 W001.51.56.659 N054.57.35.912 W001.52.41.995
EGNT Newcastle CTR N054.57.35.912 W001.52.41.995 N054.58.10.892 W001.53.22.164
EGNT Newcastle CTR N054.58.10.892 W001.53.22.164 N054.58.47.746 W001.53.56.860
EGNT Newcastle CTR N054.58.47.746 W001.53.56.860 N054.59.26.192 W001.54.25.818
EGNT Newcastle CTR N054.59.26.192 W001.54.25.818 N055.00.05.939 W001.54.48.818
EGNT Newcastle CTR N055.00.05.939 W001.54.48.818 N055.00.46.683 W001.55.05.686
EGNT Newcastle CTR N055.00.46.683 W001.55.05.686 N055.01.28.114 W001.55.16.292
EGNT Newcastle CTR N055.01.28.114 W001.55.16.292 N055.02.09.917 W001.55.20.557
EGNT Newcastle CTR N055.02.09.917 W001.55.20.557 N055.02.51.774 W001.55.18.448
EGNT Newcastle CTR N055.02.51.774 W001.55.18.448 N055.03.33.367 W001.55.09.980
EGNT Newcastle CTR N055.03.33.367 W001.55.09.980 N055.04.14.378 W001.54.55.218
EGNT Newcastle CTR N055.04.14.378 W001.54.55.218 N055.04.54.496 W001.54.34.275
EGNT Newcastle CTR N055.04.54.496 W001.54.34.275 N055.05.25.001 W001.54.11.002
EGNT Newcastle CTR N054.55.00.001 W001.47.04.999 N054.53.35.999 W001.53.03.998
EGNT Newcastle CTR N054.53.35.999 W001.53.03.998 N054.54.11.430 W001.54.23.082
EGNT Newcastle CTR N054.54.11.430 W001.54.23.082 N054.54.52.237 W001.55.33.967
EGNT Newcastle CTR N054.54.52.237 W001.55.33.967 N054.55.36.430 W001.56.38.375
EGNT Newcastle CTR N054.55.36.430 W001.56.38.375 N054.56.23.671 W001.57.35.817
EGNT Newcastle CTR N054.56.23.671 W001.57.35.817 N054.57.13.601 W001.58.25.855
EGNT Newcastle CTR N054.57.13.601 W001.58.25.855 N054.58.05.840 W001.59.08.109
EGNT Newcastle CTR N054.58.05.840 W001.59.08.109 N054.58.59.990 W001.59.42.257
EGNT Newcastle CTR N054.58.59.990 W001.59.42.257 N054.59.55.640 W002.00.08.038
EGNT Newcastle CTR N054.59.55.640 W002.00.08.038 N055.00.52.366 W002.00.25.258
EGNT Newcastle CTR N055.00.52.366 W002.00.25.258 N055.01.49.736 W002.00.33.784
EGNT Newcastle CTR N055.01.49.736 W002.00.33.784 N055.02.47.314 W002.00.33.552
EGNT Newcastle CTR N055.02.47.314 W002.00.33.552 N055.03.45.000 W002.00.20.002
;Newcastle CTA-2
EGNT Newcastle CTR N055.09.55.001 W001.37.18.998 N055.11.34.001 W001.31.08.000
EGNT Newcastle CTR N055.11.34.001 W001.31.08.000 N055.11.01.863 W001.29.44.696
EGNT Newcastle CTR N055.11.01.863 W001.29.44.696 N055.10.24.991 W001.28.27.524
EGNT Newcastle CTR N055.10.24.991 W001.28.27.524 N055.09.44.404 W001.27.16.254
EGNT Newcastle CTR N055.09.44.404 W001.27.16.254 N055.09.00.413 W001.26.11.428
EGNT Newcastle CTR N055.09.00.413 W001.26.11.428 N055.08.13.351 W001.25.13.540
EGNT Newcastle CTR N055.08.13.351 W001.25.13.540 N055.07.23.577 W001.24.23.030
EGNT Newcastle CTR N055.07.23.577 W001.24.23.030 N055.06.31.470 W001.23.40.282
EGNT Newcastle CTR N055.06.31.470 W001.23.40.282 N055.05.37.426 W001.23.05.623
EGNT Newcastle CTR N055.05.37.426 W001.23.05.623 N055.04.41.857 W001.22.39.315
EGNT Newcastle CTR N055.04.41.857 W001.22.39.315 N055.03.45.186 W001.22.21.559
EGNT Newcastle CTR N055.03.45.186 W001.22.21.559 N055.02.47.843 W001.22.12.490
EGNT Newcastle CTR N055.02.47.843 W001.22.12.490 N055.01.50.266 W001.22.12.177
EGNT Newcastle CTR N055.01.50.266 W001.22.12.177 N055.00.42.001 W001.22.27.998
EGNT Newcastle CTR N055.00.42.001 W001.22.27.998 N054.59.19.000 W001.28.28.999
EGNT Newcastle CTR N055.09.55.001 W001.37.18.998 N055.09.42.123 W001.36.09.527
EGNT Newcastle CTR N055.09.42.123 W001.36.09.527 N055.09.24.774 W001.35.03.019
EGNT Newcastle CTR N055.09.24.774 W001.35.03.019 N055.09.04.168 W001.33.59.402
EGNT Newcastle CTR N055.09.04.168 W001.33.59.402 N055.08.40.464 W001.32.59.162
EGNT Newcastle CTR N055.08.40.464 W001.32.59.162 N055.08.13.842 W001.32.02.756
EGNT Newcastle CTR N055.08.13.842 W001.32.02.756 N055.07.44.504 W001.31.10.614
EGNT Newcastle CTR N055.07.44.504 W001.31.10.614 N055.07.12.673 W001.30.23.133
EGNT Newcastle CTR N055.07.12.673 W001.30.23.133 N055.06.38.592 W001.29.40.673
EGNT Newcastle CTR N055.06.38.592 W001.29.40.673 N055.06.02.521 W001.29.03.559
EGNT Newcastle CTR N055.06.02.521 W001.29.03.559 N055.05.24.733 W001.28.32.072
EGNT Newcastle CTR N055.05.24.733 W001.28.32.072 N055.04.45.516 W001.28.06.453
EGNT Newcastle CTR N055.04.45.516 W001.28.06.453 N055.04.05.169 W001.27.46.896
EGNT Newcastle CTR N055.04.05.169 W001.27.46.896 N055.03.23.998 W001.27.33.550
EGNT Newcastle CTR N055.03.23.998 W001.27.33.550 N055.02.42.318 W001.27.26.516
EGNT Newcastle CTR N055.02.42.318 W001.27.26.516 N055.02.00.445 W001.27.25.848
EGNT Newcastle CTR N055.02.00.445 W001.27.25.848 N055.01.18.698 W001.27.31.552
EGNT Newcastle CTR N055.01.18.698 W001.27.31.552 N055.00.37.395 W001.27.43.584
EGNT Newcastle CTR N055.00.37.395 W001.27.43.584 N054.59.56.850 W001.28.01.852
EGNT Newcastle CTR N054.59.56.850 W001.28.01.852 N054.59.19.000 W001.28.28.999
;Newcastle CTA-3
EGNT Newcastle CTR N055.02.16.998 W001.13.27.701 N055.01.49.000 W001.13.36.000
EGNT Newcastle CTR N055.01.49.000 W001.13.36.000 N054.50.10.000 W001.33.30.000
EGNT Newcastle CTR N054.50.10.000 W001.33.30.000 N054.58.49.000 W001.30.40.000
EGNT Newcastle CTR N054.58.49.000 W001.30.40.000 N055.00.42.000 W001.22.28.000
EGNT Newcastle CTR N055.02.16.998 W001.13.27.701 N055.05.03.700 W001.13.53.152 
EGNT Newcastle CTR N055.05.03.700 W001.13.53.152 N055.06.25.464 W001.14.24.785 
EGNT Newcastle CTR N055.06.25.464 W001.14.24.785 N055.07.45.337 W001.15.08.734 
EGNT Newcastle CTR N055.07.45.337 W001.15.08.734 N055.09.02.712 W001.16.04.663 
EGNT Newcastle CTR N055.09.02.712 W001.16.04.663 N055.10.16.998 W001.17.12.148 
EGNT Newcastle CTR N055.10.16.998 W001.17.12.148 N055.11.27.631 W001.18.30.675 
EGNT Newcastle CTR N055.11.27.631 W001.18.30.675 N055.12.34.074 W001.19.59.646 
EGNT Newcastle CTR N055.12.34.074 W001.19.59.646 N055.13.35.821 W001.21.38.384 
EGNT Newcastle CTR N055.13.35.821 W001.21.38.384 N055.13.38.000 W001.21.47.000 
EGNT Newcastle CTR N055.13.38.000 W001.21.47.000 N055.11.34.000 W001.31.08.000
;Newcastle CTA-4
EGNT Newcastle CTR N054.55.31.000 W001.56.26.000 N054.43.56.000 W002.00.04.000
EGNT Newcastle CTR N054.43.56.000 W002.00.04.000 N055.02.09.000 W002.00.30.000
;Newcastle CTA-5
EGNT Newcastle CTR N054.58.49.000 W001.30.40.000 N054.50.10.000 W001.33.30.000
EGNT Newcastle CTR N054.50.10.000 W001.33.30.000 N054.43.56.000 W002.00.04.000
EGNT Newcastle CTR N054.43.56.000 W002.00.04.000 N054.55.31.000 W001.56.26.000
EGNT Newcastle CTR N054.58.49.000 W001.30.40.000 N054.58.49.000 W001.30.40.000
;Newcastle CTA-6
EGNT Newcastle CTR N054.50.10.000 W001.33.30.000 N054.41.24.000 W001.36.20.000
EGNT Newcastle CTR N054.41.24.000 W001.36.20.000 N054.43.56.000 W002.00.04.000
EGNT Newcastle CTR N054.43.56.000 W002.00.04.000 N054.50.10.000 W001.33.30.000
;Newcastle CTA-7
EGNT Newcastle CTR N054.43.56.000 W002.00.04.000 N054.42.19.000 W001.44.48.000
EGNT Newcastle CTR N054.42.19.000 W001.44.48.000 N054.37.24.000 W001.46.22.000
EGNT Newcastle CTR N054.37.24.000 W001.46.22.000 N054.39.01.000 W002.01.36.000 
EGNT Newcastle CTR N054.39.01.000 W002.01.36.000 N054.43.56.000 W002.00.04.000