Bristol Delegated Area    	S999.00.00.000 E999.00.00.000 S999.00.00.000 E999.00.00.000
							N051.31.35.706 W002.13.17.781 N051.34.51.700 W002.42.05.800
							N051.31.35.706 W002.13.17.781 N051.41.25.815 W002.11.04.784
							N051.41.25.815 W002.11.04.784 N051.44.37.434 W002.39.46.855
							N051.44.37.434 W002.39.46.855 N051.34.51.700 W002.42.05.800
Bristol 09 Departure Zone  	S999.00.00.000 E999.00.00.000 S999.00.00.000 E999.00.00.000
							N051.22.52.351 W002.42.55.028 N051.33.00.138 W002.26.02.412
							N051.22.52.351 W002.42.55.028 N051.16.09.819 W002.33.33.108
Bristol 27 Departure Zone  	S999.00.00.000 E999.00.00.000 S999.00.00.000 E999.00.00.000
							N051.22.52.351 W002.42.55.028 N051.13.34.816 W002.58.57.799
							N051.22.52.351 W002.42.55.028 N051.30.14.381 W002.53.14.214
Bristol DHZ					S999.00.00.000 E999.00.00.000 S999.00.00.000 E999.00.00.000
							N051.27.18.757 W003.00.50.362 N051.39.52.473 W003.05.17.477 255
							N051.39.52.473 W003.05.17.477 N051.39.51.330 W002.49.09.738 255
							N051.39.51.330 W002.49.09.738 N051.34.47.186 W002.42.10.835 255
							N051.34.47.186 W002.42.10.835 N051.27.15.278 W003.00.44.038 255