EGNH Blackpool SMAA    		S999.00.00.000 E999.00.00.000 S999.00.00.000 E999.00.00.000
							N053.57.10.440 W003.01.17.040 N053.56.35.160 W002.55.46.920 
                        	N053.56.35.160 W002.55.46.920 N053.55.30.720 W002.51.59.040 
                        	N053.55.30.720 W002.51.59.040 N053.53.44.160 W002.48.16.560 
                        	N053.53.44.160 W002.48.16.560 N053.51.38.160 W002.45.37.800 
                        	N053.51.38.160 W002.45.37.800 N053.49.21.360 W002.43.51.600 
                        	N053.49.21.360 W002.43.51.600 N053.46.30.720 W002.42.57.960 
                        	N053.46.30.720 W002.42.57.960 N053.43.39.000 W002.43.24.600 
                        	N053.43.39.000 W002.43.24.600 N053.41.12.120 W002.44.52.800 
                        	N053.41.12.120 W002.44.52.800 N053.39.08.640 W002.47.10.680 
                        	N053.39.08.640 W002.47.10.680 N053.37.18.840 W002.50.26.880 
                        	N053.37.18.840 W002.50.26.880 N053.35.51.360 W002.55.12.000 
                        	N053.35.51.360 W002.55.12.000 N053.35.16.080 W003.00.08.640 
                        	N053.35.16.080 W003.00.08.640 N053.35.33.720 W003.05.58.200 
                        	N053.35.33.720 W003.05.58.200 N053.36.49.680 W003.10.55.200 
                        	N053.36.49.680 W003.10.55.200 N053.38.41.640 W003.14.51.720 
                        	N053.38.41.640 W003.14.51.720 N053.41.10.320 W003.17.55.680 
                        	N053.41.10.320 W003.17.55.680 N053.44.34.800 W003.19.53.400 
                        	N053.44.34.800 W003.19.53.400 N053.47.41.640 W003.19.59.880 
                        	N053.47.41.640 W003.19.59.880 N053.50.42.720 W003.18.37.800 
                        	N053.50.42.720 W003.18.37.800 N053.53.07.080 W003.16.11.640 
                        	N053.53.07.080 W003.16.11.640 N053.55.22.800 W003.12.05.400 
                        	N053.55.22.800 W003.12.05.400 N053.56.34.440 W003.07.56.280 
                        	N053.56.34.440 W003.07.56.280 N053.57.05.400 W003.04.25.680 
                        	N053.57.05.400 W003.04.25.680 N053.57.10.440 W003.01.17.040

                         	N054.01.18.000 W003.01.43.000 N054.01.14.575 W002.59.30.277
                         	N054.01.14.575 W002.59.30.277 N054.01.04.327 W002.57.18.563
                         	N054.01.04.327 W002.57.18.563 N054.00.47.333 W002.55.08.862
                         	N054.00.47.333 W002.55.08.862 N054.00.23.723 W002.53.02.161
                         	N054.00.23.723 W002.53.02.161 N053.59.53.677 W002.50.59.424
                         	N053.59.53.677 W002.50.59.424 N053.59.17.423 W002.49.01.585
                         	N053.59.17.423 W002.49.01.585 N053.58.35.237 W002.47.09.540
                         	N053.58.35.237 W002.47.09.540 N053.57.47.440 W002.45.24.143
                         	N053.57.47.440 W002.45.24.143 N053.56.54.396 W002.43.46.196
                         	N053.56.54.396 W002.43.46.196 N053.55.56.509 W002.42.16.444
                         	N053.55.56.509 W002.42.16.444 N053.54.54.219 W002.40.55.570
                         	N053.54.54.219 W002.40.55.570 N053.53.48.000 W002.39.44.190
                         	N053.53.48.000 W002.39.44.190 N053.52.38.356 W002.38.42.847
                         	N053.52.38.356 W002.38.42.847 N053.51.25.818 W002.37.52.007
                         	N053.51.25.818 W002.37.52.007 N053.50.10.937 W002.37.12.059
                         	N053.50.10.937 W002.37.12.059 N053.48.54.283 W002.36.43.305
                         	N053.48.54.283 W002.36.43.305 N053.47.36.440 W002.36.25.964
                         	N053.47.36.440 W002.36.25.964 N053.46.18.000 W002.36.20.169
                         	N053.46.18.000 W002.36.20.169 N053.44.59.560 W002.36.25.964
                         	N053.44.59.560 W002.36.25.964 N053.43.41.717 W002.36.43.305
                         	N053.43.41.717 W002.36.43.305 N053.42.25.063 W002.37.12.059
                         	N053.42.25.063 W002.37.12.059 N053.41.10.182 W002.37.52.007
                         	N053.41.10.182 W002.37.52.007 N053.39.57.644 W002.38.42.847
                         	N053.39.57.644 W002.38.42.847 N053.38.48.000 W002.39.44.190
                         	N053.38.48.000 W002.39.44.190 N053.37.41.781 W002.40.55.570
                         	N053.37.41.781 W002.40.55.570 N053.36.39.491 W002.42.16.444
                         	N053.36.39.491 W002.42.16.444 N053.35.41.604 W002.43.46.196
                         	N053.35.41.604 W002.43.46.196 N053.34.48.560 W002.45.24.143
                         	N053.34.48.560 W002.45.24.143 N053.34.00.763 W002.47.09.540
                         	N053.34.00.763 W002.47.09.540 N053.33.18.577 W002.49.01.585
                         	N053.33.18.577 W002.49.01.585 N053.32.42.323 W002.50.59.424
                         	N053.32.42.323 W002.50.59.424 N053.32.12.277 W002.53.02.161
                         	N053.32.12.277 W002.53.02.161 N053.31.48.667 W002.55.08.862
                         	N053.31.48.667 W002.55.08.862 N053.31.31.673 W002.57.18.563
                         	N053.31.31.673 W002.57.18.563 N053.31.21.425 W002.59.30.277
                         	N053.31.21.425 W002.59.30.277 N053.31.18.000 W003.01.43.000
                         	N053.31.18.000 W003.01.43.000 N053.31.21.425 W003.03.55.723
                         	N053.31.21.425 W003.03.55.723 N053.31.31.673 W003.06.07.437
                         	N053.31.31.673 W003.06.07.437 N053.31.48.667 W003.08.17.138
                         	N053.31.48.667 W003.08.17.138 N053.32.12.277 W003.10.23.839
                         	N053.32.12.277 W003.10.23.839 N053.32.42.323 W003.12.26.576
                         	N053.32.42.323 W003.12.26.576 N053.33.18.577 W003.14.24.415
                         	N053.33.18.577 W003.14.24.415 N053.34.00.763 W003.16.16.460
                         	N053.34.00.763 W003.16.16.460 N053.34.48.560 W003.18.01.857
                         	N053.34.48.560 W003.18.01.857 N053.35.41.604 W003.19.39.804
                         	N053.35.41.604 W003.19.39.804 N053.36.39.491 W003.21.09.556
                         	N053.36.39.491 W003.21.09.556 N053.37.41.781 W003.22.30.430
                         	N053.37.41.781 W003.22.30.430 N053.38.48.000 W003.23.41.810
                         	N053.38.48.000 W003.23.41.810 N053.39.57.644 W003.24.43.153
                         	N053.39.57.644 W003.24.43.153 N053.41.10.182 W003.25.33.993
                         	N053.41.10.182 W003.25.33.993 N053.42.25.063 W003.26.13.941
                         	N053.42.25.063 W003.26.13.941 N053.43.41.717 W003.26.42.695
                         	N053.43.41.717 W003.26.42.695 N053.44.59.560 W003.27.00.036
                         	N053.44.59.560 W003.27.00.036 N053.46.18.000 W003.27.05.831
                         	N053.46.18.000 W003.27.05.831 N053.47.36.440 W003.27.00.036
                         	N053.47.36.440 W003.27.00.036 N053.48.54.283 W003.26.42.695
                         	N053.48.54.283 W003.26.42.695 N053.50.10.937 W003.26.13.941
                         	N053.50.10.937 W003.26.13.941 N053.51.25.818 W003.25.33.993
                         	N053.51.25.818 W003.25.33.993 N053.52.38.356 W003.24.43.153
                         	N053.52.38.356 W003.24.43.153 N053.53.48.000 W003.23.41.810
                         	N053.53.48.000 W003.23.41.810 N053.54.54.219 W003.22.30.430
                         	N053.54.54.219 W003.22.30.430 N053.55.56.509 W003.21.09.556
                         	N053.55.56.509 W003.21.09.556 N053.56.54.396 W003.19.39.804
                         	N053.56.54.396 W003.19.39.804 N053.57.47.440 W003.18.01.857
                         	N053.57.47.440 W003.18.01.857 N053.58.35.237 W003.16.16.460
                         	N053.58.35.237 W003.16.16.460 N053.59.17.423 W003.14.24.415
                         	N053.59.17.423 W003.14.24.415 N053.59.53.677 W003.12.26.576
                         	N053.59.53.677 W003.12.26.576 N054.00.23.723 W003.10.23.839
                         	N054.00.23.723 W003.10.23.839 N054.00.47.333 W003.08.17.138
                         	N054.00.47.333 W003.08.17.138 N054.01.04.327 W003.06.07.437
                         	N054.01.04.327 W003.06.07.437 N054.01.14.575 W003.03.55.723
                         	N054.01.14.575 W003.03.55.723 N054.01.18.000 W003.01.43.000

                         	N053.58.37.000 W002.47.17.000 N053.58.35.237 W002.47.09.540
                         	N053.58.35.237 W002.47.09.540 N053.57.47.440 W002.45.24.143
                         	N053.57.47.440 W002.45.24.143 N053.56.54.396 W002.43.46.196
                         	N053.56.54.396 W002.43.46.196 N053.55.56.509 W002.42.16.444
                         	N053.55.56.509 W002.42.16.444 N053.54.54.219 W002.40.55.570
                         	N053.54.54.219 W002.40.55.570 N053.53.48.000 W002.39.44.190
                         	N053.53.48.000 W002.39.44.190 N053.52.38.356 W002.38.42.847
                         	N053.52.38.356 W002.38.42.847 N053.51.25.818 W002.37.52.007
                         	N053.51.25.818 W002.37.52.007 N053.50.10.937 W002.37.12.059
                         	N053.50.10.937 W002.37.12.059 N053.50.00.000 W002.37.12.000
                         	N053.50.00.000 W002.37.12.000 N053.50.05.092 W002.36.45.800
                         	N053.50.05.092 W002.36.45.800 N053.50.15.108 W002.36.04.749
                         	N053.50.15.108 W002.36.04.749 N053.50.27.192 W002.35.25.336
                         	N053.50.27.192 W002.35.25.336 N053.50.41.254 W002.34.47.862
                         	N053.50.41.254 W002.34.47.862 N053.50.57.187 W002.34.12.611
                         	N053.50.57.187 W002.34.12.611 N053.51.14.868 W002.33.39.851
                         	N053.51.14.868 W002.33.39.851 N053.51.34.164 W002.33.09.833
                         	N053.51.34.164 W002.33.09.833 N053.51.54.927 W002.32.42.784
                         	N053.51.54.927 W002.32.42.784 N053.52.17.000 W002.32.18.910
                         	N053.52.17.000 W002.32.18.910 N053.52.40.215 W002.31.58.393
                         	N053.52.40.215 W002.31.58.393 N053.53.04.394 W002.31.41.389
                         	N053.53.04.394 W002.31.41.389 N053.53.29.354 W002.31.28.028
                         	N053.53.29.354 W002.31.28.028 N053.53.54.906 W002.31.18.411
                         	N053.53.54.906 W002.31.18.411 N053.54.20.853 W002.31.12.611
                         	N053.54.20.853 W002.31.12.611 N053.54.47.000 W002.31.10.673
                         	N053.54.47.000 W002.31.10.673 N053.55.13.147 W002.31.12.611
                         	N053.55.13.147 W002.31.12.611 N053.55.39.094 W002.31.18.411
                         	N053.55.39.094 W002.31.18.411 N053.56.04.646 W002.31.28.028
                         	N053.56.04.646 W002.31.28.028 N053.56.29.606 W002.31.41.389
                         	N053.56.29.606 W002.31.41.389 N053.56.53.785 W002.31.58.393
                         	N053.56.53.785 W002.31.58.393 N053.57.17.000 W002.32.18.910
                         	N053.57.17.000 W002.32.18.910 N053.57.39.073 W002.32.42.784
                         	N053.57.39.073 W002.32.42.784 N053.57.59.836 W002.33.09.833
                         	N053.57.59.836 W002.33.09.833 N053.58.19.132 W002.33.39.851
                         	N053.58.19.132 W002.33.39.851 N053.58.36.813 W002.34.12.611
                         	N053.58.36.813 W002.34.12.611 N053.58.52.746 W002.34.47.862
                         	N053.58.52.746 W002.34.47.862 N053.59.06.808 W002.35.25.336
                         	N053.59.06.808 W002.35.25.336 N053.59.18.892 W002.36.04.749
                         	N053.59.18.892 W002.36.04.749 N053.59.28.908 W002.36.45.800
                         	N053.59.28.908 W002.36.45.800 N053.59.36.778 W002.37.28.176
                         	N053.59.36.778 W002.37.28.176 N053.59.42.442 W002.38.11.556
                         	N053.59.42.442 W002.38.11.556 N053.59.45.858 W002.38.55.609
                         	N053.59.45.858 W002.38.55.609 N053.59.47.000 W002.39.40.000
                         	N053.59.47.000 W002.39.40.000 N053.59.45.858 W002.40.24.391
                         	N053.59.45.858 W002.40.24.391 N053.59.42.442 W002.41.08.444
                         	N053.59.42.442 W002.41.08.444 N053.59.36.778 W002.41.51.824
                         	N053.59.36.778 W002.41.51.824 N053.59.28.908 W002.42.34.200
                         	N053.59.28.908 W002.42.34.200 N053.59.18.892 W002.43.15.251
                         	N053.59.18.892 W002.43.15.251 N053.59.06.808 W002.43.54.664
                         	N053.59.06.808 W002.43.54.664 N053.58.52.746 W002.44.32.138
                         	N053.58.52.746 W002.44.32.138 N053.58.36.813 W002.45.07.389
                         	N053.58.36.813 W002.45.07.389 N053.58.19.132 W002.45.40.149
                         	N053.58.19.132 W002.45.40.149 N053.57.59.836 W002.46.10.167
                         	N053.57.59.836 W002.46.10.167 N053.57.39.073 W002.46.37.216
                         	N053.57.39.073 W002.46.37.216 N053.57.17.000 W002.47.01.090
                         	N053.57.17.000 W002.47.01.090 N053.56.53.785 W002.47.21.607
                         	N053.56.53.785 W002.47.21.607 N053.56.29.606 W002.47.38.611
                         	N053.56.29.606 W002.47.38.611 N053.56.04.646 W002.47.51.972
                         	N053.56.04.646 W002.47.51.972 N053.55.39.094 W002.48.01.589
                         	N053.55.39.094 W002.48.01.589 N053.55.23.000 W002.48.04.000
                         	N053.55.23.000 W002.48.04.000 N053.58.37.000 W002.47.17.000

                         	N053.44.10.000 W002.36.41.000 N053.43.57.746 W002.37.14.412
                         	N053.43.57.746 W002.37.14.412 N053.43.41.813 W002.37.49.455
                         	N053.43.41.813 W002.37.49.455 N053.43.24.132 W002.38.22.021
                         	N053.43.24.132 W002.38.22.021 N053.43.04.836 W002.38.51.862
                         	N053.43.04.836 W002.38.51.862 N053.42.44.073 W002.39.18.751
                         	N053.42.44.073 W002.39.18.751 N053.42.22.000 W002.39.42.484
                         	N053.42.22.000 W002.39.42.484 N053.41.58.785 W002.40.02.880
                         	N053.41.58.785 W002.40.02.880 N053.41.34.606 W002.40.19.783
                         	N053.41.34.606 W002.40.19.783 N053.41.09.646 W002.40.33.065
                         	N053.41.09.646 W002.40.33.065 N053.40.44.094 W002.40.42.626
                         	N053.40.44.094 W002.40.42.626 N053.40.18.147 W002.40.48.391
                         	N053.40.18.147 W002.40.48.391 N053.39.52.000 W002.40.50.318
                         	N053.39.52.000 W002.40.50.318 N053.39.25.853 W002.40.48.391
                         	N053.39.25.853 W002.40.48.391 N053.38.59.906 W002.40.42.626
                         	N053.38.59.906 W002.40.42.626 N053.38.34.354 W002.40.33.065
                         	N053.38.34.354 W002.40.33.065 N053.38.17.000 W002.40.23.000
                         	N053.38.17.000 W002.40.23.000 N053.38.48.000 W002.39.44.190
                         	N053.38.48.000 W002.39.44.190 N053.39.57.644 W002.38.42.847
                         	N053.39.57.644 W002.38.42.847 N053.41.10.182 W002.37.52.007
                         	N053.41.10.182 W002.37.52.007 N053.42.25.063 W002.37.12.059
                         	N053.42.25.063 W002.37.12.059 N053.43.41.717 W002.36.43.305
                         	N053.43.41.717 W002.36.43.305 N053.44.10.000 W002.36.41.000