Cardiff Delegated Area    	S999.00.00.000 E999.00.00.000 S999.00.00.000 E999.00.00.000
                            N051.39.44.000 W003.24.26.000 N051.45.24.518 W004.01.55.292
                            N051.45.24.518 W004.01.55.292 N051.55.06.904 W003.58.01.641
                            N051.55.06.904 W003.58.01.641 N051.49.50.000 W003.23.23.000
                            N051.49.50.000 W003.23.23.000 N052.02.58.000 W003.22.24.500
                            N052.02.58.000 W003.22.24.500 N052.02.32.900 W003.06.21.000
                            N052.02.32.900 W003.06.21.000 N052.01.59.300 W002.46.51.200
                            N052.01.59.300 W002.46.51.200 N051.45.36.747 W002.48.18.000
                            N051.45.36.747 W002.48.18.000 N051.44.37.434 W002.39.46.855
                            N051.44.37.434 W002.39.46.855 N051.34.51.700 W002.42.05.800
                            N051.34.51.700 W002.42.05.800 N051.24.11.316 W002.44.38.550
                            N051.24.11.316 W002.44.38.550 N051.24.42.896 W002.51.51.307
                            N051.24.42.896 W002.51.51.307 N050.42.27.847 W002.59.19.503
                            N050.42.27.847 W002.59.19.503 N050.45.30.087 W003.33.50.034
                            N050.45.30.087 W003.33.50.034 N051.39.44.000 W003.24.26.000
                            N051.39.44.000 W003.24.26.000 N050.45.30.087 W003.33.50.034
                            N051.34.51.700 W002.42.05.800 N051.37.43.000 W003.08.45.000
                            N051.26.08.000 W003.10.50.000 N051.37.43.000 W003.08.45.000
                            N051.26.08.000 W003.10.50.000 N050.44.07.581 W003.18.12.402