CIRCLE_SECTORLINE:CCTWR:EGCC:2.5
DISPLAY:CCFIN05:CCFIN05:CCDEP
DISPLAY:CCDEP:CCFIN05:CCDEP
DISPLAY:CCFIN05:CCFIN05:CCAPP
DISPLAY:CCAPP:CCFIN05:CCAPP
DISPLAY:CCFIN23:CCFIN23:CCDEP
DISPLAY:CCDEP:CCFIN23:CCDEP
DISPLAY:CCFIN23:CCFIN23:CCAPP
DISPLAY:CCAPP:CCFIN23:CCAPP

SECTORLINE:CCSTH23
DISPLAY:MW285:MW285:CCSTH23
DISPLAY:CCSTH23:MW285:CCSTH23
DISPLAY:ME285:ME285:CCSTH23
DISPLAY:CCSTH23:ME285:CCSTH23
DISPLAY:CCFIN23:CCFIN23:CCSTH23
DISPLAY:CCSTH23:CCFIN23:CCSTH23
COORD:N053.33.41.445:W001.50.17.657
COORD:N053.27.19.000:W001.46.17.000
COORD:N053.26.56.000:W001.50.00.000
COORD:N053.26.14.000:W001.50.24.000
COORD:N053.16.47.000:W001.46.46.000
COORD:N053.14.19.000:W002.01.45.000
COORD:N053.21.25.000:W002.15.44.000

SECTORLINE:CCNTH23_CCSTH23
DISPLAY:CCNTH23:CCNTH23:CCSTH23
DISPLAY:CCSTH23:CCNTH23:CCSTH23
COORD:N053.21.25.000:W002.15.44.000
COORD:N053.33.41.445:W001.50.17.657

SECTORLINE:CCNTH23
DISPLAY:MW285:MW285:CCNTH23
DISPLAY:CCNTH23:MW285:CCNTH23
DISPLAY:ME285:ME285:CCNTH23
DISPLAY:CCNTH23:ME285:CCNTH23
DISPLAY:CCFIN23:CCFIN23:CCNTH23
DISPLAY:CCNTH23:CCFIN23:CCNTH23
COORD:N053.21.25.000:W002.15.44.000
COORD:N053.28.14.000:W002.25.41.000
COORD:N053.20.10.000:W002.50.59.000
COORD:N053.29.20.000:W002.50.59.000
COORD:N053.32.17.000:W002.42.42.000
COORD:N053.40.08.000:W002.20.57.000
COORD:N053.36.50.000:W001.52.16.000
COORD:N053.33.41.445:W001.50.17.657

SECTORLINE:CCNTH05_CCSTH05
DISPLAY:CCSTH05:CCSTH05:CCNTH05
DISPLAY:CCNTH05:CCSTH05:CCNTH05
COORD:N053.21.25.000:W002.15.44.000
COORD:N053.09.54.878:W002.39.12.131

SECTORLINE:CCNTH05
DISPLAY:MW285:MW285:CCNTH05
DISPLAY:CCNTH05:MW285:CCNTH05
DISPLAY:ME285:ME285:CCNTH05
DISPLAY:CCNTH05:ME285:CCNTH05
DISPLAY:CCFIN05:CCFIN05:CCNTH05
DISPLAY:CCNTH05:CCFIN05:CCNTH05
COORD:N053.09.54.878:W002.39.12.131
COORD:N053.20.10.000:W002.50.59.000
COORD:N053.29.20.000:W002.50.59.000
COORD:N053.32.17.000:W002.42.42.000
COORD:N053.40.08.000:W002.20.57.000
COORD:N053.36.30.000:W002.03.00.000
COORD:N053.27.45.000:W002.24.30.000
COORD:N053.21.25.000:W002.15.44.000

SECTORLINE:CCSTH05
DISPLAY:MW285:MW285:CCSTH05
DISPLAY:CCSTH05:MW285:CCSTH05
DISPLAY:ME285:ME285:CCSTH05
DISPLAY:CCSTH05:ME285:CCSTH05
DISPLAY:CCFIN05:CCFIN05:CCSTH05
DISPLAY:CCSTH05:CCFIN05:CCSTH05
COORD:N053.21.25.000:W002.15.44.000
COORD:N053.16.47.000:W001.46.46.000
COORD:N053.06.02.000:W002.22.46.000
COORD:N053.06.16.000:W002.34.59.000
COORD:N053.09.54.878:W002.39.12.131