;CTA-16
FL75:N052.31.48.774:W000.55.12.648
;CTA-18
FL65:N052.31.11.075:W001.03.14.101
;CTA-17
5500':N052.35.21.008:W001.07.00.106
;CTA-15
4500':N052.39.37.278:W001.05.36.877
;CTA-15
FL65:N052.41.59.500:W000.56.39.653
;CTA-3
2500':N052.44.05.942:W001.07.04.210
;CTA-2
1500':N052.48.35.323:W001.04.26.120
;CTA-1
2500':N052.56.38.526:W001.14.06.410
;CTA-7
4000':N053.01.19.751:W001.22.05.488
;CTA-5
1500':N052.48.43.603:W001.35.23.017
;CTA-4
2500':N052.42.51.084:W001.26.34.026
;CTA-9
4500':N052.37.34.176:W001.22.35.990
;CTA-8
4000':N052.59.36.708:W001.40.34.280
;CTA-6
2500':N052.55.21.457:W001.35.10.003
5500':N053.07.03.858:W001.26.05.209
FL75:N053.10.37.401:W001.30.13.717
;CTA 10 3000-5500
3000':N052.54.32.207:W001.42.11.879
;CTA 11 3000-4500
3000':N052.47.27.797:W001.40.30.838
;CTA 12 3500-4500
3500':N052.49.14.702:W001.43.59.635
;CTA 13 2500-4500
2500':N052.45.37.440:W001.36.30.144