EGTE Exeter SMAA          	S999.00.00.000 E999.00.00.000 S999.00.00.000 E999.00.00.000
                            N050.33.24.551 W003.23.32.534 N050.35.56.722 W003.23.51.039
                            N050.34.58.539 W003.31.40.843 N050.35.00.610 W003.32.44.606
                            N050.34.59.115 W003.30.55.363 N050.34.58.539 W003.31.40.843
                            N050.35.00.610 W003.32.44.606 N050.35.06.942 W003.33.52.296
                            N050.35.02.817 W003.29.50.268 N050.34.59.115 W003.30.55.363
                            N050.35.06.942 W003.33.52.296 N050.35.16.219 W003.34.54.771
                            N050.35.10.308 W003.28.48.326 N050.35.02.817 W003.29.50.268
                            N050.35.16.219 W003.34.54.771 N050.35.32.017 W003.36.11.862
                            N050.35.32.017 W003.36.11.862 N050.35.47.633 W003.37.05.440
                            N050.35.47.633 W003.37.05.440 N050.36.14.932 W003.38.22.897
                            N050.35.56.722 W003.23.51.039 N050.33.24.551 W003.23.32.534
                            N050.35.56.722 W003.23.51.039 N050.35.10.308 W003.28.48.326
                            N050.36.14.932 W003.38.22.897 N050.36.35.905 W003.39.09.823
                            N050.36.35.905 W003.39.09.823 N050.36.46.188 W003.39.30.625
                            N050.36.39.994 W003.19.14.882 N050.35.56.722 W003.23.51.039
                            N050.36.46.188 W003.39.30.625 N050.37.10.102 W003.40.12.337
                            N050.36.50.784 W003.18.17.596 N050.36.39.994 W003.19.14.882
                            N050.36.59.399 W003.39.09.057 N050.36.45.716 W003.39.29.853
                            N050.37.04.421 W003.17.22.678 N050.36.50.784 W003.18.17.596
                            N050.37.10.102 W003.40.12.337 N050.37.38.768 W003.40.57.232
                            N050.37.16.492 W003.38.43.820 N050.36.59.399 W003.39.09.057
                            N050.37.21.907 W003.16.26.362 N050.37.04.421 W003.17.22.678
                            N050.37.37.441 W003.38.17.187 N050.37.16.492 W003.38.43.820
                            N050.37.38.768 W003.40.57.232 N050.38.06.594 W003.41.33.003
                            N050.37.41.738 W003.15.33.914 N050.37.21.907 W003.16.26.362
                            N050.38.00.272 W003.37.52.895 N050.37.37.441 W003.38.17.187
                            N050.38.02.943 W003.14.46.820 N050.37.41.738 W003.15.33.914
                            N050.38.06.594 W003.41.33.003 N050.38.40.131 W003.42.11.987
                            N050.38.19.167 W003.37.36.814 N050.38.00.272 W003.37.52.895
                            N050.38.30.443 W003.13.54.615 N050.38.02.943 W003.14.46.820
                            N050.38.40.131 W003.42.11.987 N050.39.12.362 W003.42.40.311
                            N050.38.52.039 W003.37.14.358 N050.38.19.167 W003.37.36.814
                            N050.38.53.429 W003.13.18.190 N050.38.30.443 W003.13.54.615
                            N050.39.12.362 W003.42.40.311 N050.39.37.982 W003.43.00.847
                            N050.39.12.592 W003.39.12.548 N050.44.04.033 W003.41.02.694
                            N050.39.18.304 W003.12.44.103 N050.38.53.429 W003.13.18.190
                            N050.39.24.350 W003.36.58.704 N050.38.52.039 W003.37.14.358
                            N050.39.37.982 W003.43.00.847 N050.40.12.208 W003.43.23.170
                            N050.39.44.606 W003.12.10.820 N050.39.18.304 W003.12.44.103
                            N050.39.49.838 W003.36.51.932 N050.39.24.350 W003.36.58.704
                            N050.39.49.838 W003.36.51.932 N050.39.12.592 W003.39.12.548
                            N050.40.12.208 W003.43.23.170 N050.40.46.490 W003.43.40.944
                            N050.40.18.111 W003.11.36.250 N050.39.44.606 W003.12.10.820
                            N050.40.46.490 W003.43.40.944 N050.41.17.966 W003.43.53.323
                            N050.40.51.073 W003.11.06.968 N050.40.18.111 W003.11.36.250
                            N050.41.17.966 W003.43.53.323 N050.41.51.395 W003.44.02.730
                            N050.41.26.361 W003.10.43.070 N050.40.51.073 W003.11.06.968
                            N050.41.51.395 W003.44.02.730 N050.42.27.268 W003.44.08.426
                            N050.41.58.710 W003.10.24.387 N050.41.26.361 W003.10.43.070
                            N050.42.19.792 W003.27.27.996 N050.39.49.838 W003.36.51.932
                            N050.42.27.268 W003.44.08.426 N050.43.03.197 W003.44.09.570
                            N050.42.35.808 W003.10.08.884 N050.41.58.710 W003.10.24.387
                            N050.42.51.039 W003.48.11.080 N050.43.03.197 W003.44.09.570
                            N050.43.03.197 W003.44.09.570 N050.42.51.039 W003.48.11.080
                            N050.43.03.197 W003.44.09.570 N050.43.52.131 W003.44.05.823
                            N050.43.18.673 W003.21.14.518 N050.43.54.158 W003.09.50.911
                            N050.43.19.588 W003.09.55.875 N050.42.35.808 W003.10.08.884
                            N050.43.52.131 W003.44.05.823 N050.44.29.155 W003.43.56.387
                            N050.43.54.158 W003.09.50.911 N050.43.19.588 W003.09.55.875
                            N050.43.58.496 W003.08.32.945 N050.43.54.158 W003.09.50.911
                            N050.44.04.033 W003.41.02.694 N050.44.09.736 W003.39.12.926
                            N050.44.09.736 W003.39.12.926 N050.44.43.832 W003.28.23.396
                            N050.44.17.718 W003.39.26.071 N050.44.09.736 W003.39.12.926
                            N050.44.29.155 W003.43.56.387 N050.45.04.301 W003.43.43.859
                            N050.44.35.479 W003.40.01.520 N050.44.17.718 W003.39.26.071
                            N050.44.43.832 W003.28.23.396 N050.42.19.792 W003.27.27.996
                            N050.44.49.999 W003.08.53.545 N050.45.01.594 W003.04.58.845
                            N050.44.53.609 W003.40.46.076 N050.44.35.479 W003.40.01.520
                            N050.45.04.301 W003.43.43.859 N050.45.29.853 W003.43.31.785
                            N050.45.09.723 W003.41.38.158 N050.44.53.609 W003.40.46.076
                            N050.45.22.449 W003.42.33.158 N050.45.09.723 W003.41.38.158
                            N050.45.29.853 W003.43.31.785 N050.46.08.018 W003.43.07.977
                            N050.45.29.853 W003.43.31.785 N050.45.22.449 W003.42.33.158
                            N050.45.42.213 W003.22.11.419 N050.43.18.673 W003.21.14.518
                            N050.46.08.018 W003.43.07.977 N050.46.30.745 W003.42.52.018
                            N050.46.30.745 W003.42.52.018 N050.47.02.726 W003.42.24.224
                            N050.47.02.726 W003.42.24.224 N050.47.34.292 W003.41.51.866
                            N050.47.34.292 W003.41.51.866 N050.48.06.408 W003.41.13.461
                            N050.47.51.546 W003.14.04.171 N050.48.31.254 W003.11.38.326
                            N050.47.51.546 W003.14.04.171 N050.45.42.213 W003.22.11.419
                            N050.48.06.408 W003.41.13.461 N050.48.28.856 W003.40.41.570
                            N050.48.17.408 W003.14.05.754 N050.47.51.546 W003.14.04.171
                            N050.48.28.856 W003.40.41.570 N050.48.51.865 W003.40.03.629
                            N050.48.31.254 W003.11.38.326 N050.48.49.392 W003.10.28.387
                            N050.48.43.307 W003.14.04.307 N050.48.17.408 W003.14.05.754
                            N050.48.47.822 W003.11.54.783 N050.48.31.254 W003.11.38.326
                            N050.48.49.392 W003.10.28.387 N050.43.58.496 W003.08.32.945
                            N050.48.51.865 W003.40.03.629 N050.49.15.404 W003.39.21.160
                            N050.49.07.809 W003.13.59.779 N050.48.43.307 W003.14.04.307
                            N050.49.10.502 W003.12.20.530 N050.48.47.822 W003.11.54.783
                            N050.49.15.404 W003.39.21.160 N050.49.33.649 W003.38.40.792
                            N050.49.33.649 W003.38.40.792 N050.49.50.466 W003.37.59.624
                            N050.49.39.093 W003.13.49.402 N050.49.07.809 W003.13.59.779
                            N050.49.43.049 W003.13.01.756 N050.49.10.502 W003.12.20.530
                            N050.49.50.466 W003.37.59.624 N050.50.08.393 W003.37.06.355
                            N050.50.04.682 W003.13.34.293 N050.49.43.049 W003.13.01.756
                            N050.50.05.152 W003.13.35.067 N050.49.39.093 W003.13.49.402
                            N050.50.08.393 W003.37.06.355 N050.50.26.461 W003.36.01.720
                            N050.50.19.230 W003.13.59.023 N050.50.04.682 W003.13.34.293
                            N050.50.26.461 W003.36.01.720 N050.50.40.231 W003.34.56.185
                            N050.50.35.619 W003.14.29.118 N050.50.19.230 W003.13.59.023
                            N050.50.40.231 W003.34.56.185 N050.52.05.761 W003.25.48.392
                            N050.50.51.027 W003.15.01.461 N050.50.35.619 W003.14.29.118
                            N050.51.07.325 W003.15.39.134 N050.50.51.027 W003.15.01.461
                            N050.51.19.861 W003.16.11.384 N050.51.07.325 W003.15.39.134
                            N050.51.34.185 W003.16.53.546 N050.51.19.861 W003.16.11.384
                            N050.51.44.283 W003.17.28.751 N050.51.34.185 W003.16.53.546
                            N050.51.54.773 W003.18.10.791 N050.51.44.283 W003.17.28.751
                            N050.52.04.269 W003.18.55.835 N050.51.54.773 W003.18.10.791
                            N050.52.05.750 W003.25.49.152 N050.52.12.513 W003.25.06.902
                            N050.52.12.269 W003.19.45.378 N050.52.04.269 W003.18.55.835
                            N050.52.12.513 W003.25.06.902 N050.52.16.301 W003.24.32.899
                            N050.52.16.301 W003.24.32.899 N050.52.20.728 W003.23.46.027
                            N050.52.17.824 W003.20.38.637 N050.52.12.269 W003.19.45.378
                            N050.52.20.728 W003.23.46.027 N050.52.22.222 W003.23.03.609
                            N050.52.21.082 W003.21.24.237 N050.52.17.824 W003.20.38.637
                            N050.52.22.222 W003.23.03.609 N050.52.23.268 W003.22.18.903
                            N050.52.23.268 W003.22.18.903 N050.52.21.082 W003.21.24.237
                            N050.54.37.447 W003.26.07.641 N050.52.05.750 W003.25.49.152